{
	"categories": [
		{
			"id": 1,
			"name": "category 1",
			"description": "category 1 description",
			"image": "subscription-1.png",
			"createDate": 1507327380000,
			"updateDate": 1507327380000
		},
		{
			"id": 2,
			"name": "category 2",
			"description": "category 2 description",
			"image": "subscription-3.png",
			"createDate": 1507327380000,
			"updateDate": 1507327380000
		}
	],
	"files": [
		{
			"id": 1,
			"name": "file 1",
			"source": "file 1 source",
			"description": "file 1 description",
			"image": "subscription-1.png",
			"imageSmaller": "path/to/imageSmaller.ext",
			"imageSmallest": "path/to/imageSmallest.ext",
			"downloadCount": 0,
			"categoryIds": [
				1
			],
			"createDate": 1507327380000,
			"updateDate": 1507327380000,
			"tagIds": [
				1,
				2
			]
		},
		{
			"id": 2,
			"name": "file 2",
			"source": "file 2 source",
			"description": "file 2 description",
			"image": "subscription-3.png",
			"imageSmaller": "path/to/imageSmaller.ext",
			"imageSmallest": "path/to/imageSmallest.ext",
			"downloadCount": 3,
			"categoryIds": [
				1
			],
			"createDate": 1507327380000,
			"updateDate": 1507327380000,
			"tagIds": [
				2,
				3
			]
		},
		{
			"id": 3,
			"name": "file 3",
			"source": "file 3 source",
			"description": "file 3 description",
			"image": "subscription-3.png",
			"imageSmaller": "path/to/imageSmaller.ext",
			"imageSmallest": "path/to/imageSmallest.ext",
			"downloadCount": 1,
			"categoryIds": [
				1
			],
			"createDate": 1507327380000,
			"updateDate": 1507327380000,
			"tagIds": [
				1,
				3
			]
		},
		{
			"id": 4,
			"name": "file 4",
			"source": "file 4 source",
			"description": "file 4 description",
			"image": "subscription-1.png",
			"imageSmaller": "path/to/imageSmaller.ext",
			"imageSmallest": "path/to/imageSmallest.ext",
			"downloadCount": 12,
			"categoryIds": [
				2
			],
			"createDate": 1507327380000,
			"updateDate": 1507327380000,
			"tagIds": [
				1,
				2,
				3
			]
		},
		{
			"id": 5,
			"name": "file 5",
			"source": "file 5 source",
			"description": "file 5 description",
			"image": "6d6f5dda2e47d25006f0f43b798070e6.jpg",
			"imageSmaller": "path/to/imageSmaller.ext",
			"imageSmallest": "path/to/imageSmallest.ext",
			"downloadCount": 50,
			"categoryIds": [
				2
			],
			"createDate": 1507327380000,
			"updateDate": 1507327380000,
			"tagIds": [
				1,
				2,
				3
			]
		},
		{
			"id": 6,
			"name": "file 6",
			"source": "file 6 source",
			"description": "file 6 description",
			"image": "6d6f5dda2e47d25006f0f43b798070e6.jpg",
			"imageSmaller": "path/to/imageSmaller.ext",
			"imageSmallest": "path/to/imageSmallest.ext",
			"downloadCount": 10,
			"categoryIds": [
				2
			],
			"createDate": 1507327380000,
			"updateDate": 1507327380000,
			"tagIds": [
				1
			]
		}
	],
	"tags": [
		{
			"id": 1,
			"name": "tag 1",
			"description": "tag 1 description",
			"createDate": 1507327380000,
			"updateDate": 1507327380000
		},
		{
			"id": 2,
			"name": "tag 2",
			"description": "tag 2 description",
			"createDate": 1507327380000,
			"updateDate": 1507327380000
		},
		{
			"id": 3,
			"name": "tag 3",
			"description": "tag 3 description",
			"createDate": 1507327380000,
			"updateDate": 1507327380000
		}
	],
	"featured": [
		1,
		2,
		6
	]
}